<?xml version="1.0" encoding="utf-8"?>
<!-- Generator: Adobe Illustrator 16.0.4, SVG Export Plug-In . SVG Version: 6.00 Build 0)  -->
<!DOCTYPE svg PUBLIC "-//W3C//DTD SVG 1.1//EN" "http://www.w3.org/Graphics/SVG/1.1/DTD/svg11.dtd">
<svg version="1.1" xmlns="http://www.w3.org/2000/svg" xmlns:xlink="http://www.w3.org/1999/xlink" x="0px" y="0px" width="150px"
	 height="150.001px" viewBox="0 0 150 150.001" enable-background="new 0 0 150 150.001" xml:space="preserve">
<g id="_x39__1_">
	<path d="M120.522,75.221c-6.319-14.652-15.304-27.128-25.314-35.182c1.424-1.842,2.275-4.107,2.275-6.562
		c0-6.136-5.254-11.128-11.713-11.128h-1.595l5.066-10.469c0.224-0.463,0.195-1.008-0.076-1.444s-0.747-0.704-1.262-0.709
		L62.038,9.501c-0.48-0.012-1.009,0.264-1.284,0.705c-0.277,0.442-0.304,0.996-0.071,1.464L66,22.349h-0.228
		c-6.459,0-11.713,4.992-11.713,11.128c0,2.049,0.596,3.964,1.617,5.614c-10.158,8.338-20.123,22.043-26.199,36.13
		c-7.018,16.266-6.382,32.065,1.788,44.488c8.69,13.214,24.631,20.792,43.733,20.792s35.044-7.579,43.734-20.793
		C126.904,107.284,127.539,91.485,120.522,75.221z M64.459,12.522l21.051,0.184l-4.667,9.643H69.352L64.459,12.522z M65.772,25.349
		h19.998c4.805,0,8.713,3.646,8.713,8.128s-3.908,8.128-8.713,8.128H65.772c-4.805,0-8.713-3.646-8.713-8.128
		S60.968,25.349,65.772,25.349z M116.228,118.059c-8.127,12.356-23.153,19.442-41.229,19.442c-18.074,0-33.101-7.086-41.227-19.44
		c-7.598-11.552-8.145-26.344-1.541-41.652c5.899-13.674,15.539-26.95,25.344-34.996c2.115,1.972,5.008,3.192,8.197,3.192h19.998
		c2.762,0,5.299-0.918,7.303-2.442c0.012,0.01,0.02,0.021,0.031,0.03c9.728,7.743,18.486,19.895,24.664,34.216
		C124.372,91.716,123.824,106.508,116.228,118.059z"/>
	<path d="M65.549,95.932c0.156,0,0.314-0.024,0.472-0.076l10.732-3.552c0.613-0.203,1.028-0.777,1.028-1.424V75.284
		c0-0.828-0.672-1.5-1.5-1.5s-1.5,0.672-1.5,1.5v14.512l-9.704,3.212c-0.786,0.26-1.213,1.108-0.952,1.896
		C64.333,95.533,64.919,95.932,65.549,95.932z"/>
	<path d="M74.949,64.189c-0.828,0-1.5,0.672-1.5,1.5s0.672,1.5,1.5,1.5c11.678,0,21.179,9.718,21.179,21.662
		s-9.501,21.661-21.179,21.661c-11.067,0-20.173-8.729-21.095-19.809h1.893l-3.702-5.096l-3.703,5.096h2.505
		c0.933,12.735,11.382,22.809,24.103,22.809c13.332,0,24.179-11.062,24.179-24.661S88.281,64.189,74.949,64.189z"/>
</g>
<g id="_x38__1_">
</g>
<g id="_x37__1_">
</g>
<g id="_x36__1_">
</g>
<g id="_x35__1_">
</g>
<g id="_x34__1_">
</g>
<g id="_x33__1_">
</g>
<g id="_x32__1_">
</g>
<g id="_x31__1_">
</g>
</svg>
