<?xml version="1.0" encoding="utf-8"?>
<!-- Generator: Adobe Illustrator 16.0.4, SVG Export Plug-In . SVG Version: 6.00 Build 0)  -->
<!DOCTYPE svg PUBLIC "-//W3C//DTD SVG 1.1//EN" "http://www.w3.org/Graphics/SVG/1.1/DTD/svg11.dtd">
<svg version="1.1" xmlns="http://www.w3.org/2000/svg" xmlns:xlink="http://www.w3.org/1999/xlink" x="0px" y="0px" width="150px"
	 height="150px" viewBox="0 0 150 150" enable-background="new 0 0 150 150" xml:space="preserve">
<g id="_x39__1_">
</g>
<g id="_x38__1_">
</g>
<g id="_x37__1_">
</g>
<g id="_x36__1_">
</g>
<g id="_x35__1_">
	<path d="M127.983,69.14V11.938c0-0.512-0.261-0.988-0.691-1.264c-0.43-0.275-0.973-0.312-1.438-0.098
		c-7.697,3.555-15.691,5.357-23.761,5.357c0,0-0.001,0-0.002,0c-12.606,0-22.312-4.408-26.476-6.299
		c-0.421-0.192-0.906-0.177-1.315,0.037c-7.796,4.077-16.212,6.144-25.016,6.144c-14.393,0-24.958-5.608-25.063-5.665
		c-0.465-0.25-1.027-0.24-1.481,0.032c-0.453,0.271-0.731,0.759-0.731,1.288v59.077c0,26.272,23.722,57.601,52.879,69.836
		c0.186,0.078,0.383,0.117,0.58,0.117c0.211,0,0.423-0.045,0.619-0.134c27.788-12.599,40.419-31.269,46.122-44.712
		C128.406,81.047,128.002,69.559,127.983,69.14z M119.447,94.483c-5.453,12.855-17.512,30.684-44.002,42.878
		C47.579,125.377,25.009,95.54,25.009,70.547V13.843c3.965,1.731,12.903,4.972,24.276,4.972c9.047,0,17.707-2.068,25.753-6.149
		c4.629,2.09,14.415,6.268,27.054,6.268c0.001,0,0.001,0,0.001,0c7.765,0,15.454-1.579,22.891-4.696l0.001,54.965
		C124.989,69.314,125.383,80.491,119.447,94.483z"/>
	<path d="M98.942,39.314c-0.255-0.506-0.773-0.825-1.34-0.825h-6.656v-4.341c0-0.829-0.672-1.5-1.5-1.5h-6.221
		c-0.828,0-1.5,0.671-1.5,1.5v4.341H52.123c-0.575,0-1.1,0.329-1.351,0.847L44.137,53.06c-0.225,0.465-0.194,1.013,0.08,1.45
		c0.274,0.438,0.754,0.703,1.271,0.703h4.859v37.629c0,0.829,0.672,1.5,1.5,1.5h5.741c0.188,0.085,0.396,0.136,0.617,0.136
		s0.429-0.051,0.617-0.136h39.195c0.828,0,1.5-0.671,1.5-1.5V55.212h4.996c0.008,0.001,0.016,0,0.02,0c0.829,0,1.5-0.671,1.5-1.5
		c0-0.326-0.104-0.627-0.28-0.874L98.942,39.314z M84.726,35.648h3.221v2.841h-3.221V35.648z M69.561,91.342h-9.855V68.935h9.855
		V91.342z M96.518,91.342H72.561V67.435c0-0.829-0.672-1.5-1.5-1.5H58.205c-0.828,0-1.5,0.671-1.5,1.5v23.907h-3.358V55.212h43.171
		V91.342z M52.464,52.212c-0.188-0.086-0.396-0.136-0.617-0.136s-0.429,0.05-0.617,0.136h-3.351l5.185-10.723h43.615l5.4,10.723
		H52.464z"/>
	<path d="M79.217,81.842h10.507c0.828,0,1.5-0.671,1.5-1.5V67.707c0-0.821-0.66-1.489-1.48-1.5l-10.507-0.136
		c-0.415-0.005-0.788,0.15-1.073,0.433c-0.285,0.282-0.446,0.666-0.446,1.067v12.771C77.717,81.17,78.389,81.842,79.217,81.842z
		 M80.717,69.09l7.507,0.097v9.654h-7.507V69.09z"/>
</g>
<g id="_x34__1_">
</g>
<g id="_x33__1_">
</g>
<g id="_x32__1_">
</g>
<g id="_x31__1_">
</g>
</svg>
