<?xml version="1.0" encoding="utf-8"?>
<!-- Generator: Adobe Illustrator 16.0.4, SVG Export Plug-In . SVG Version: 6.00 Build 0)  -->
<!DOCTYPE svg PUBLIC "-//W3C//DTD SVG 1.1//EN" "http://www.w3.org/Graphics/SVG/1.1/DTD/svg11.dtd">
<svg version="1.1" id="Layer_1" xmlns="http://www.w3.org/2000/svg" xmlns:xlink="http://www.w3.org/1999/xlink" x="0px" y="0px"
	 width="150px" height="150px" viewBox="0 0 150 150" enable-background="new 0 0 150 150" xml:space="preserve">
<path d="M120.521,75.221c-6.318-14.651-15.304-27.128-25.313-35.182c1.424-1.842,2.274-4.107,2.274-6.562
	c0-6.136-5.254-11.128-11.713-11.128h-1.595l5.066-10.469c0.224-0.463,0.194-1.008-0.076-1.444s-0.747-0.704-1.262-0.709
	L62.038,9.501c-0.004,0-0.009,0-0.013,0c-0.517,0-0.998,0.267-1.271,0.705c-0.277,0.442-0.304,0.996-0.071,1.464L66,22.349h-0.228
	c-6.459,0-11.713,4.992-11.713,11.128c0,2.049,0.596,3.964,1.617,5.614c-10.158,8.338-20.123,22.043-26.199,36.13
	c-7.018,16.266-6.382,32.065,1.788,44.489c8.69,13.213,24.631,20.791,43.733,20.791c19.102,0,35.044-7.578,43.734-20.793
	C126.904,107.284,127.539,91.485,120.521,75.221z M64.459,12.522l21.051,0.184l-4.667,9.643H69.352L64.459,12.522z M65.772,25.349
	H85.77c4.806,0,8.713,3.646,8.713,8.128s-3.907,8.128-8.713,8.128H65.772c-4.805,0-8.713-3.646-8.713-8.128
	S60.968,25.349,65.772,25.349z M116.229,118.059c-8.127,12.355-23.153,19.441-41.229,19.441c-18.074,0-33.101-7.086-41.227-19.439
	c-7.598-11.553-8.145-26.344-1.541-41.652c5.899-13.673,15.539-26.95,25.344-34.996c2.115,1.972,5.008,3.192,8.197,3.192H85.77
	c2.763,0,5.299-0.918,7.304-2.442c0.012,0.01,0.02,0.021,0.03,0.03c9.729,7.743,18.486,19.895,24.664,34.216
	C124.372,91.715,123.824,106.508,116.229,118.059z"/>
<path fill-rule="evenodd" clip-rule="evenodd" d="M44.28,91.965c0-0.672-0.002-1.123,0.001-1.574
	c0.002-0.394,0.161-0.666,0.592-0.667c1.375-0.003,2.265-0.788,2.948-1.862c0.713-1.121,1.295-2.338,2.091-3.394
	c4.293-5.707,12.721-6.446,17.966-1.589c0.74,0.686,1.373,1.491,2.003,2.283c0.623,0.78,0.854,0.865,1.673,0.322
	c2.081-1.378,4.171-1.402,6.29-0.088c1.058,0.655,1.199,0.618,1.96-0.43c2.042-2.818,4.754-4.568,8.2-5.15
	c4.849-0.82,9.788,1.451,12.34,5.678c0.465,0.771,0.872,1.579,1.359,2.337c0.696,1.084,1.571,1.909,2.992,1.923
	c0.197,0.001,0.543,0.375,0.557,0.594c0.062,0.944,0.045,1.896,0.011,2.844c-0.007,0.181-0.177,0.432-0.343,0.52
	c-1.361,0.725-2.298,1.877-3.17,3.092c-0.473,0.66-0.883,1.362-1.321,2.048c-2.501,3.929-6.069,6.049-10.735,6.131
	c-6.543,0.118-12.192-5.5-12.276-12.112c-0.004-0.293,0.007-0.587-0.004-0.88c-0.056-1.491-1.199-2.588-2.676-2.575
	c-1.436,0.015-2.59,1.112-2.579,2.587c0.016,2.137-0.326,4.187-1.326,6.085c-2.328,4.421-6.017,6.827-10.997,6.871
	c-4.585,0.04-8.136-2.098-10.605-5.956c-0.987-1.542-1.921-3.114-3.291-4.362c-0.133-0.121-0.257-0.275-0.417-0.342
	C44.348,93.811,44.025,92.922,44.28,91.965z M51.139,92.132c-0.027,4.888,3.864,8.948,8.62,8.995
	c4.679,0.045,8.512-3.824,8.533-8.611c0.021-4.926-3.874-9.027-8.673-8.986C55.105,83.569,51.226,87.074,51.139,92.132z
	 M98.4,92.204c0-4.772-3.81-8.688-8.462-8.69c-4.719-0.005-8.659,4.011-8.67,8.84c-0.011,4.91,3.688,8.778,8.394,8.774
	C94.469,101.123,98.399,97.11,98.4,92.204z"/>
</svg>
