<?xml version="1.0" encoding="utf-8"?>
<!-- Generator: Adobe Illustrator 16.0.4, SVG Export Plug-In . SVG Version: 6.00 Build 0)  -->
<!DOCTYPE svg PUBLIC "-//W3C//DTD SVG 1.1//EN" "http://www.w3.org/Graphics/SVG/1.1/DTD/svg11.dtd">
<svg version="1.1" id="PDF" xmlns="http://www.w3.org/2000/svg" xmlns:xlink="http://www.w3.org/1999/xlink" x="0px" y="0px"
	 width="64px" height="64px" viewBox="0 0 64 64" enable-background="new 0 0 64 64" xml:space="preserve">
<g>
	<path fill="#7978B1" d="M12.161,30.044h-1.229v7.094h0.991c2.226,0,3.338-1.195,3.338-3.585
		C15.261,31.214,14.228,30.044,12.161,30.044z"/>
	<path fill="#7978B1" d="M51,0H17c-2.209,0-4,1.791-4,4v17H4c-2.209,0-4,1.791-4,4v18c0,2.209,1.791,4,4,4h9v13c0,2.209,1.791,4,4,4
		h43c2.209,0,4-1.791,4-4V14C64,11.791,53.209,0,51,0z M50.5,3h0.036c2.078,1.206,7.982,7.513,9.951,10.5H53
		c-1.379,0-2.5-1.122-2.5-2.5V3z M11.707,39.045H8.622V28.15h3.42c1.778,0,3.16,0.47,4.143,1.409
		c0.984,0.938,1.476,2.25,1.476,3.934c0,1.794-0.511,3.167-1.531,4.121C15.108,38.568,13.634,39.045,11.707,39.045z M61,60
		c0,0.552-0.448,1-1,1H17c-0.551,0-1-0.448-1-1V47h27c2.209,0,4-1.791,4-4V25c0-2.209-1.791-4-4-4H16V4c0-0.551,0.449-1,1-1h30.5v8
		c0,3.033,2.468,5.5,5.5,5.5h8V60z M19.434,33.568c0-1.813,0.448-3.198,1.345-4.154c0.896-0.956,2.182-1.435,3.856-1.435
		c1.674,0,2.955,0.481,3.841,1.445c0.887,0.964,1.331,2.35,1.331,4.158c0,1.803-0.447,3.189-1.341,4.158
		c-0.895,0.969-2.176,1.453-3.845,1.453c-1.669,0-2.951-0.484-3.845-1.453S19.434,35.381,19.434,33.568z M36.693,37.271
		c0.764,0,1.691-0.191,2.779-0.574v1.938c-0.895,0.373-1.893,0.56-2.996,0.56c-1.584,0-2.797-0.481-3.637-1.442
		s-1.26-2.341-1.26-4.14c0-1.133,0.207-2.124,0.619-2.977c0.412-0.852,1.004-1.505,1.777-1.96c0.771-0.454,1.678-0.682,2.717-0.682
		c1.057,0,2.121,0.256,3.188,0.768l-0.744,1.878c-0.408-0.193-0.816-0.362-1.23-0.507c-0.412-0.144-0.816-0.216-1.213-0.216
		c-0.871,0-1.543,0.326-2.02,0.979c-0.479,0.653-0.717,1.563-0.717,2.731C33.957,36.057,34.869,37.271,36.693,37.271z"/>
	<path fill="#7978B1" d="M27.385,33.583c0-2.454-0.917-3.681-2.75-3.681c-0.919,0-1.612,0.309-2.079,0.928
		c-0.467,0.618-0.7,1.536-0.7,2.753s0.231,2.134,0.693,2.749c0.462,0.616,1.152,0.925,2.072,0.925
		C26.463,37.257,27.385,36.032,27.385,33.583z"/>
</g>
</svg>
