<?xml version="1.0" encoding="utf-8"?>
<!-- Generator: Adobe Illustrator 16.0.4, SVG Export Plug-In . SVG Version: 6.00 Build 0)  -->
<!DOCTYPE svg PUBLIC "-//W3C//DTD SVG 1.1//EN" "http://www.w3.org/Graphics/SVG/1.1/DTD/svg11.dtd">
<svg version="1.1" xmlns="http://www.w3.org/2000/svg" xmlns:xlink="http://www.w3.org/1999/xlink" x="0px" y="0px" width="300px"
	 height="60px" viewBox="0 0 300 60" enable-background="new 0 0 300 60" xml:space="preserve">
<g id="дебетовая_карта">
	<path fill-rule="evenodd" clip-rule="evenodd" fill="none" stroke="#000000" stroke-linecap="round" stroke-miterlimit="10" d="
		M265.726,21.647c0-4.831,0-6.888,0-6.888c0-0.845,0.678-1.53,1.515-1.53h24.235c0.837,0,1.515,0.686,1.515,1.53
		c0,0,0,24.383,0,33.689 M292.99,43.901c0,3.583,0,4.508,0,4.508c0,0.845-0.678,1.529-1.515,1.529H267.24
		c-0.837,0-1.515-0.685-1.515-1.529v-0.662"/>
	<g>
		<path d="M271.488,25.471C271.771,25.472,272,25.709,272,26v17c0,0.292-0.23,0.529-0.517,0.529l-26.965,0.056
			c-0.284,0-0.515-0.237-0.515-0.529V26.23c0-0.292,0.23-0.529,0.523-0.529L271.488,25.471 M271.485,24.471l-26.967,0.23
			c-0.836,0-1.515,0.685-1.515,1.529v16.825c0,0.845,0.679,1.529,1.515,1.529l26.967-0.056c0.837,0,1.515-0.685,1.515-1.529V26
			C273,25.155,272.322,24.471,271.485,24.471L271.485,24.471z"/>
	</g>
	<path fill-rule="evenodd" clip-rule="evenodd" fill="none" stroke="#000000" stroke-linecap="round" stroke-miterlimit="10" d="
		M277.843,11.585c0-0.844,0.679-1.529,1.515-1.529c0.837,0,1.516,0.686,1.516,1.529"/>
	
		<line fill-rule="evenodd" clip-rule="evenodd" fill="none" stroke="#000000" stroke-linecap="round" stroke-miterlimit="10" x1="248.306" y1="36.173" x2="258.151" y2="36.173"/>
	
		<line fill-rule="evenodd" clip-rule="evenodd" fill="none" stroke="#000000" stroke-linecap="round" stroke-miterlimit="10" x1="248.306" y1="39.996" x2="253.607" y2="39.996"/>
	
		<polyline fill-rule="evenodd" clip-rule="evenodd" fill="none" stroke="#000000" stroke-linecap="round" stroke-miterlimit="10" points="
		280.115,41.526 282.388,43.82 286.932,39.231 	"/>
	
		<line fill-rule="evenodd" clip-rule="evenodd" fill="none" stroke="#000000" stroke-linecap="round" stroke-miterlimit="10" x1="244" y1="29" x2="272" y2="29"/>
	
		<line fill-rule="evenodd" clip-rule="evenodd" fill="none" stroke="#000000" stroke-linecap="round" stroke-miterlimit="10" x1="271.006" y1="19.348" x2="287.71" y2="19.348"/>
	
		<line fill-rule="evenodd" clip-rule="evenodd" fill="none" stroke="#000000" stroke-linecap="round" stroke-miterlimit="10" x1="274.803" y1="23.172" x2="287.71" y2="23.172"/>
	
		<line fill-rule="evenodd" clip-rule="evenodd" fill="none" stroke="#000000" stroke-linecap="round" stroke-miterlimit="10" x1="278.595" y1="26.996" x2="287.71" y2="26.996"/>
</g>
<g id="ипотека_1_">
	
		<polyline fill-rule="evenodd" clip-rule="evenodd" fill="none" stroke="#000000" stroke-linecap="round" stroke-miterlimit="10" points="
		202.474,19.223 202.474,30.181 205.597,30.181 205.597,23.137 213.403,23.137 213.403,30.181 216.526,30.181 216.526,19.223 	"/>
	<g>
		<path d="M224.078,9.933c0.453,0,0.822,0.373,0.822,0.832V31v14.652v5.396c0,0.458-0.369,0.831-0.822,0.831h-29.153
			c-0.453,0-0.821-0.373-0.821-0.831V38V19.011v-8.246c0-0.459,0.368-0.832,0.821-0.832H224.078 M224.078,8.933h-29.153
			c-1.006,0-1.821,0.82-1.821,1.832c0,0,0,2.462,0,8.246V38v13.049c0,1.012,0.815,1.831,1.821,1.831h29.153
			c1.007,0,1.822-0.819,1.822-1.831c0,0,0-1.107,0-5.396V31c0-11.143,0-20.235,0-20.235C225.9,9.753,225.085,8.933,224.078,8.933
			L224.078,8.933z"/>
	</g>
	<path fill-rule="evenodd" clip-rule="evenodd" fill="none" stroke="#000000" stroke-linecap="round" stroke-miterlimit="10" d="
		M207.68,6.965c0-1.012,0.815-1.831,1.822-1.831c1.006,0,1.822,0.819,1.822,1.831"/>
	
		<line fill-rule="evenodd" clip-rule="evenodd" fill="none" stroke="#000000" stroke-linecap="round" stroke-miterlimit="10" x1="219.545" y1="36.607" x2="199.452" y2="36.607"/>
	
		<line fill-rule="evenodd" clip-rule="evenodd" fill="none" stroke="#000000" stroke-linecap="round" stroke-miterlimit="10" x1="219.662" y1="41.186" x2="199.452" y2="41.186"/>
	
		<line fill-rule="evenodd" clip-rule="evenodd" fill="none" stroke="#000000" stroke-linecap="round" stroke-miterlimit="10" x1="210.416" y1="45.764" x2="199.452" y2="45.764"/>
	
		<polyline fill-rule="evenodd" clip-rule="evenodd" fill="none" stroke="#000000" stroke-linecap="round" stroke-miterlimit="10" points="
		198.832,18.789 209.502,12.961 220.173,18.789 	"/>
</g>
<g id="перевод">
	<g>
		<path d="M173.076,10.005c0.513,0,0.931,0.398,0.931,0.888v23.603c0,0.49-0.418,0.889-0.931,0.889h-38.604
			c-0.513,0-0.931-0.398-0.931-0.889V10.893c0-0.489,0.417-0.888,0.931-0.888H173.076 M173.076,9.005h-38.604
			c-1.066,0-1.931,0.845-1.931,1.888v23.603c0,1.043,0.864,1.889,1.931,1.889h38.604c1.066,0,1.931-0.846,1.931-1.889V10.893
			C175.007,9.85,174.143,9.005,173.076,9.005L173.076,9.005z"/>
	</g>
	
		<path fill-rule="evenodd" clip-rule="evenodd" fill="none" stroke="#000000" stroke-linecap="round" stroke-linejoin="round" stroke-miterlimit="10" d="
		M138.077,10.745c0,2.086-1.729,3.776-3.86,3.776"/>
	
		<path fill-rule="evenodd" clip-rule="evenodd" fill="none" stroke="#000000" stroke-linecap="round" stroke-linejoin="round" stroke-miterlimit="10" d="
		M169.84,10.745c0,2.086,1.729,3.776,3.861,3.776"/>
	
		<path fill-rule="evenodd" clip-rule="evenodd" fill="none" stroke="#000000" stroke-linecap="round" stroke-linejoin="round" stroke-miterlimit="10" d="
		M170.3,34.73c0-1.963,1.729-3.554,3.86-3.554"/>
	
		<path fill-rule="evenodd" clip-rule="evenodd" fill="none" stroke="#000000" stroke-linecap="round" stroke-linejoin="round" stroke-miterlimit="10" d="
		M137.704,34.73c0-1.963-1.729-3.554-3.86-3.554"/>
	
		<ellipse fill-rule="evenodd" clip-rule="evenodd" fill="none" stroke="#000000" stroke-linecap="round" stroke-linejoin="round" stroke-miterlimit="10" cx="153.358" cy="22.295" rx="9.159" ry="9.13"/>
	
		<polygon fill-rule="evenodd" clip-rule="evenodd" fill="none" stroke="#000000" stroke-linecap="round" stroke-linejoin="round" stroke-miterlimit="10" points="
		170.532,43.631 175.012,45.167 172.133,49.664 	"/>
	
		<line fill-rule="evenodd" clip-rule="evenodd" fill="none" stroke="#000000" stroke-linecap="round" stroke-linejoin="round" stroke-miterlimit="10" x1="149.69" y1="25.851" x2="154.938" y2="25.851"/>
	
		<line fill-rule="evenodd" clip-rule="evenodd" fill="none" stroke="#000000" stroke-linecap="round" stroke-linejoin="round" stroke-miterlimit="10" x1="165.843" y1="22.281" x2="169.173" y2="22.281"/>
	
		<line fill-rule="evenodd" clip-rule="evenodd" fill="none" stroke="#000000" stroke-linecap="round" stroke-linejoin="round" stroke-miterlimit="10" x1="137.539" y1="22.281" x2="140.869" y2="22.281"/>
	
		<path fill-rule="evenodd" clip-rule="evenodd" fill="none" stroke="#000000" stroke-linecap="round" stroke-linejoin="round" stroke-miterlimit="10" d="
		M150.565,27.501v-9.717h5.247c0,0,1.75-0.15,1.75,2.216c0,2.262-2.624,2.683-2.624,2.683h-5.248"/>
	
		<path fill-rule="evenodd" clip-rule="evenodd" fill="none" stroke="#000000" stroke-linecap="round" stroke-linejoin="round" stroke-miterlimit="10" d="
		M130.406,24.851c0,0-27.211,30.87,41.107,21.199"/>
</g>
<g id="кредиты_1_">
	
		<path fill-rule="evenodd" clip-rule="evenodd" fill="none" stroke="#000000" stroke-linecap="round" stroke-linejoin="round" stroke-miterlimit="10" d="
		M68.886,26.758c-2.196,0-1.987,0-1.987,0c-1.003,0-1.815,0.823-1.815,1.839v15.444c0,1.016,0.812,1.839,1.815,1.839h35.707
		c1.003,0,1.816-0.823,1.816-1.839c0,0,0,0.018,0-2.128"/>
	
		<path fill-rule="evenodd" clip-rule="evenodd" fill="none" stroke="#000000" stroke-linecap="round" stroke-linejoin="round" stroke-miterlimit="10" d="
		M113.21,20.383c2.196,0,1.987,0,1.987,0c1.003,0,1.815,0.823,1.815,1.839v15.444c0,1.016-0.812,1.839-1.815,1.839H79.489
		c-1.002,0-1.815-0.823-1.815-1.839c0,0,0,0.018,0-2.129"/>
	<g>
		<path d="M108.904,15.007c0.45,0,0.815,0.376,0.815,0.839v15.445c0,0.463-0.366,0.839-0.815,0.839H73.196
			c-0.45,0-0.815-0.376-0.815-0.839V15.846c0-0.462,0.366-0.839,0.815-0.839H108.904 M108.904,14.007H73.196
			c-1.003,0-1.815,0.824-1.815,1.839v15.445c0,1.016,0.812,1.839,1.815,1.839h35.708c1.003,0,1.815-0.823,1.815-1.839V15.846
			C110.72,14.831,109.907,14.007,108.904,14.007L108.904,14.007z"/>
	</g>
	
		<line fill-rule="evenodd" clip-rule="evenodd" fill="none" stroke="#000000" stroke-linecap="round" stroke-linejoin="round" stroke-miterlimit="10" x1="77.675" y1="23.563" x2="89.475" y2="23.563"/>
	
		<line fill-rule="evenodd" clip-rule="evenodd" fill="none" stroke="#000000" stroke-linecap="round" stroke-linejoin="round" stroke-miterlimit="10" x1="77.675" y1="27.548" x2="84.755" y2="27.548"/>
</g>
<g id="вклад_1_">
	<path fill-rule="evenodd" clip-rule="evenodd" fill="none" stroke="#000000" stroke-linecap="round" stroke-miterlimit="10" d="
		M23.855,42.525V26.458h7.102c0,0,3.945,0.523,3.945,4.63c0,3.923-3.945,4.085-3.945,4.085h-9.732"/>
	<path fill-rule="evenodd" clip-rule="evenodd" fill="none" stroke="#000000" stroke-linecap="round" stroke-miterlimit="10" d="
		M24.405,10.209h7.775c2.193,0,3.971,1.677,3.971,3.745s-1.778,3.745-3.971,3.745h-7.775c-2.193,0-3.971-1.677-3.971-3.745
		S22.211,10.209,24.405,10.209z"/>
	
		<polyline fill-rule="evenodd" clip-rule="evenodd" fill="none" stroke="#000000" stroke-linecap="round" stroke-miterlimit="10" points="
		30.632,10.206 33.004,5.299 22.948,5.211 25.434,10.206 	"/>
	<path fill-rule="evenodd" clip-rule="evenodd" fill="none" stroke="#000000" stroke-linecap="round" stroke-miterlimit="10" d="
		M34.877,16.373c4.035,3.214,7.927,8.595,10.28,14.05c5.878,13.632-3.084,24.58-17.165,24.58S4.95,44.055,10.828,30.423
		c2.375-5.509,6.322-10.942,10.399-14.145"/>
	
		<line fill-rule="evenodd" clip-rule="evenodd" fill="none" stroke="#000000" stroke-linecap="round" stroke-miterlimit="10" x1="20.827" y1="38.942" x2="32.186" y2="38.942"/>
	<path fill-rule="evenodd" clip-rule="evenodd" fill="none" stroke="#000000" stroke-linecap="round" stroke-miterlimit="10" d="
		M39.926,43.315c0,0-2.748,6.702-11.942,6.247"/>
</g>
</svg>
