<?xml version="1.0" encoding="utf-8"?>
<!-- Generator: Adobe Illustrator 16.0.4, SVG Export Plug-In . SVG Version: 6.00 Build 0)  -->
<!DOCTYPE svg PUBLIC "-//W3C//DTD SVG 1.1//EN" "http://www.w3.org/Graphics/SVG/1.1/DTD/svg11.dtd">
<svg version="1.1" id="Layer_1" xmlns="http://www.w3.org/2000/svg" xmlns:xlink="http://www.w3.org/1999/xlink" x="0px" y="0px"
	 width="30px" height="44px" viewBox="0 0 30 44" enable-background="new 0 0 30 44" xml:space="preserve">
<g id="zULAjy_1_">
	<g>
		<path fill-rule="evenodd" clip-rule="evenodd" fill="#E01935" d="M14.97,44c-0.914-1.221-1.809-2.385-2.67-3.574
			c-3.338-4.613-6.451-9.365-8.97-14.479c-1.306-2.65-2.524-5.354-3.052-8.27c-0.947-5.235,0.515-9.784,4.332-13.526
			c2.379-2.333,5.285-3.698,8.602-4.05c4.922-0.522,9.169,0.979,12.635,4.517c2.232,2.279,3.55,5.031,4.003,8.168
			c0.333,2.307,0.099,4.575-0.61,6.806c-1.631,5.142-4.189,9.834-7.135,14.317c-2.198,3.344-4.595,6.561-6.904,9.832
			C15.154,43.807,15.093,43.862,14.97,44z M14.979,7.542c-4.116,0.032-7.452,3.342-7.398,7.389c0.058,4.261,3.603,7.403,7.628,7.311
			c3.922-0.09,7.227-3.422,7.204-7.39C22.391,10.821,19.023,7.509,14.979,7.542z"/>
	</g>
</g>
</svg>
