<?xml version="1.0" encoding="utf-8"?>
<!-- Generator: Adobe Illustrator 16.0.4, SVG Export Plug-In . SVG Version: 6.00 Build 0)  -->
<!DOCTYPE svg PUBLIC "-//W3C//DTD SVG 1.1//EN" "http://www.w3.org/Graphics/SVG/1.1/DTD/svg11.dtd">
<svg version="1.1" id="Layer_1" xmlns="http://www.w3.org/2000/svg" xmlns:xlink="http://www.w3.org/1999/xlink" x="0px" y="0px"
	 width="16px" height="16px" viewBox="0 0 16 16" enable-background="new 0 0 16 16" xml:space="preserve">
<path d="M16,2.5C16,3.329,15.328,4,14.5,4h-13C0.671,4,0,3.329,0,2.5l0,0C0,1.671,0.671,1,1.5,1h13C15.328,1,16,1.671,16,2.5L16,2.5
	z"/>
<path d="M16,14.5c0,0.828-0.672,1.5-1.5,1.5h-13C0.671,16,0,15.328,0,14.5l0,0C0,13.672,0.671,13,1.5,13h13
	C15.328,13,16,13.672,16,14.5L16,14.5z"/>
<path d="M16,8.5c0,0.828-0.672,1.5-1.5,1.5h-13C0.671,10,0,9.328,0,8.5l0,0C0,7.672,0.671,7,1.5,7h13C15.328,7,16,7.672,16,8.5
	L16,8.5z"/>
</svg>
