<?xml version="1.0" encoding="utf-8"?>
<!-- Generator: Adobe Illustrator 16.0.4, SVG Export Plug-In . SVG Version: 6.00 Build 0)  -->
<!DOCTYPE svg PUBLIC "-//W3C//DTD SVG 1.1//EN" "http://www.w3.org/Graphics/SVG/1.1/DTD/svg11.dtd">
<svg version="1.1" id="Layer_2" xmlns="http://www.w3.org/2000/svg" xmlns:xlink="http://www.w3.org/1999/xlink" x="0px" y="0px"
	 width="32px" height="32px" viewBox="0 0 32 32" enable-background="new 0 0 32 32" xml:space="preserve">
<g>
	<path fill="#7978B2" d="M28,3h-5V1c0-0.552-0.447-1-1-1s-1,0.448-1,1v2h-4V1c0-0.552-0.448-1-1-1s-1,0.448-1,1v2h-4V1
		c0-0.552-0.448-1-1-1S9,0.448,9,1v2H4C2.343,3,1,4.343,1,6v23c0,1.657,1.343,3,3,3h24c1.656,0,3-1.343,3-3V6
		C31,4.343,29.656,3,28,3z M29,29c0,0.552-0.448,1-1,1H4c-0.551,0-1-0.448-1-1V6c0-0.551,0.449-1,1-1h5v2c0,0.552,0.448,1,1,1
		s1-0.448,1-1V5h4v2c0,0.552,0.448,1,1,1s1-0.448,1-1V5h4v2c0,0.552,0.447,1,1,1s1-0.448,1-1V5h5c0.552,0,1,0.449,1,1V29z"/>
	<polygon fill="#7978B2" points="14.033,21.478 9.768,16.36 8.232,17.641 13.967,24.522 24.74,12.673 23.26,11.327 	"/>
</g>
</svg>
