<?xml version="1.0" encoding="utf-8"?>
<!-- Generator: Adobe Illustrator 16.0.4, SVG Export Plug-In . SVG Version: 6.00 Build 0)  -->
<!DOCTYPE svg PUBLIC "-//W3C//DTD SVG 1.1//EN" "http://www.w3.org/Graphics/SVG/1.1/DTD/svg11.dtd">
<svg version="1.1" id="Layer_2" xmlns="http://www.w3.org/2000/svg" xmlns:xlink="http://www.w3.org/1999/xlink" x="0px" y="0px"
	 width="32px" height="64px" viewBox="0 0 32 64" enable-background="new 0 0 32 64" xml:space="preserve">
<g>
	<path fill="#6F6E6F" d="M28,2H12c-0.378,0-0.733,0.084-1.066,0.213C9.931,0.872,8.335,0,6.531,0c-3.038,0-5.5,2.462-5.5,5.5
		c0,1.476,0.584,2.813,1.531,3.801c0.266,1.034,1.729,7.29-0.031,13.433c-0.928,0.984-1.5,2.307-1.5,3.767
		c0,3.037,2.462,5.5,5.5,5.5c1.802,0,3.396-0.871,4.399-2.209C11.263,29.922,11.621,30,12,30h16c1.657,0,3-1.343,3-3V5
		C31,3.343,29.657,2,28,2z M6.531,1c2.481,0,4.5,2.019,4.5,4.5c0,1.238-0.503,2.36-1.314,3.174C9.679,8.701,9.64,8.727,9.61,8.764
		C8.804,9.525,7.725,10,6.531,10c-1.212,0-2.309-0.486-3.119-1.269c-0.036-0.054-0.08-0.1-0.132-0.136
		c-0.77-0.808-1.25-1.895-1.25-3.096C2.031,3.019,4.05,1,6.531,1z M9.171,10.325c-1.024,4.688-0.428,9.143,0.013,11.357
		C8.397,21.249,7.493,21,6.531,21c-0.987,0-1.911,0.263-2.711,0.718c1.045-4.727,0.432-9.232-0.01-11.443
		C4.612,10.734,5.54,11,6.531,11C7.488,11,8.387,10.755,9.171,10.325z M6.531,31c-2.481,0-4.5-2.019-4.5-4.5S4.05,22,6.531,22
		c1.173,0,2.233,0.461,3.035,1.199c0.052,0.107,0.131,0.181,0.235,0.229c0.757,0.806,1.23,1.882,1.23,3.072
		C11.031,28.981,9.013,31,6.531,31z M29.5,27c0,0.827-0.673,1.5-1.5,1.5H12c-0.115,0-0.222-0.031-0.329-0.056
		c0.229-0.605,0.36-1.258,0.36-1.944c0-1.521-0.617-2.897-1.615-3.893c-0.312-1.247-1.646-7.278,0.026-13.243
		c0.981-0.993,1.588-2.357,1.588-3.864c0-0.69-0.132-1.347-0.364-1.956C11.774,3.519,11.885,3.5,12,3.5h16
		c0.827,0,1.5,0.673,1.5,1.5V27z"/>
	<path fill="#6F6E6F" d="M19.5,11c-0.828,0-1.5,0.672-1.5,1.5s0.672,1.5,1.5,1.5s1.5-0.672,1.5-1.5S20.328,11,19.5,11z M19.5,13.25
		c-0.414,0-0.75-0.336-0.75-0.75s0.336-0.75,0.75-0.75s0.75,0.336,0.75,0.75S19.914,13.25,19.5,13.25z"/>
	<path fill="#6F6E6F" d="M23.5,11c-0.828,0-1.5,0.672-1.5,1.5s0.672,1.5,1.5,1.5s1.5-0.672,1.5-1.5S24.328,11,23.5,11z M23.5,13.25
		c-0.414,0-0.75-0.336-0.75-0.75s0.336-0.75,0.75-0.75s0.75,0.336,0.75,0.75S23.914,13.25,23.5,13.25z"/>
	<path fill="#6F6E6F" d="M15.5,11c-0.828,0-1.5,0.672-1.5,1.5s0.672,1.5,1.5,1.5s1.5-0.672,1.5-1.5S16.328,11,15.5,11z M15.5,13.25
		c-0.414,0-0.75-0.336-0.75-0.75s0.336-0.75,0.75-0.75s0.75,0.336,0.75,0.75S15.914,13.25,15.5,13.25z"/>
	<path fill="#6F6E6F" d="M19.5,16c-0.828,0-1.5,0.672-1.5,1.5s0.672,1.5,1.5,1.5s1.5-0.672,1.5-1.5S20.328,16,19.5,16z M19.5,18.25
		c-0.414,0-0.75-0.336-0.75-0.75s0.336-0.75,0.75-0.75s0.75,0.336,0.75,0.75S19.914,18.25,19.5,18.25z"/>
	<path fill="#6F6E6F" d="M23.5,16c-0.828,0-1.5,0.672-1.5,1.5s0.672,1.5,1.5,1.5s1.5-0.672,1.5-1.5S24.328,16,23.5,16z M23.5,18.25
		c-0.414,0-0.75-0.336-0.75-0.75s0.336-0.75,0.75-0.75s0.75,0.336,0.75,0.75S23.914,18.25,23.5,18.25z"/>
	<path fill="#6F6E6F" d="M15.5,16c-0.828,0-1.5,0.672-1.5,1.5s0.672,1.5,1.5,1.5s1.5-0.672,1.5-1.5S16.328,16,15.5,16z M15.5,18.25
		c-0.414,0-0.75-0.336-0.75-0.75s0.336-0.75,0.75-0.75s0.75,0.336,0.75,0.75S15.914,18.25,15.5,18.25z"/>
	<path fill="#6F6E6F" d="M19.5,21c-0.828,0-1.5,0.672-1.5,1.5s0.672,1.5,1.5,1.5s1.5-0.672,1.5-1.5S20.328,21,19.5,21z M19.5,23.25
		c-0.414,0-0.75-0.336-0.75-0.75s0.336-0.75,0.75-0.75s0.75,0.336,0.75,0.75S19.914,23.25,19.5,23.25z"/>
	<path fill="#6F6E6F" d="M23.5,21c-0.828,0-1.5,0.672-1.5,1.5s0.672,1.5,1.5,1.5s1.5-0.672,1.5-1.5S24.328,21,23.5,21z M23.5,23.25
		c-0.414,0-0.75-0.336-0.75-0.75s0.336-0.75,0.75-0.75s0.75,0.336,0.75,0.75S23.914,23.25,23.5,23.25z"/>
	<path fill="#6F6E6F" d="M15.5,21c-0.828,0-1.5,0.672-1.5,1.5s0.672,1.5,1.5,1.5s1.5-0.672,1.5-1.5S16.328,21,15.5,21z M15.5,23.25
		c-0.414,0-0.75-0.336-0.75-0.75s0.336-0.75,0.75-0.75s0.75,0.336,0.75,0.75S15.914,23.25,15.5,23.25z"/>
	<path fill="#6F6E6F" d="M24.083,7h-9.167C14.411,7,14,7.448,14,8s0.411,1,0.917,1h9.167C24.59,9,25,8.552,25,8S24.59,7,24.083,7z"
		/>
</g>
<g>
	<path fill="#6F6E6F" d="M16,32.042c-8.836,0-16,7.164-16,16c0,8.837,7.164,16,16,16c8.837,0,16-7.163,16-16
		C32,39.205,24.837,32.042,16,32.042z M16,63.041c-8.271,0-15-6.729-15-15c0-8.271,6.729-15,15-15c8.271,0,15,6.729,15,15
		C31,56.312,24.271,63.041,16,63.041z"/>
	<path fill="#6F6E6F" d="M16,36C9.373,36,4,41.373,4,48s5.373,12,12,12c6.628,0,12-5.373,12-12S22.628,36,16,36z M17,58.949v-0.282
		C17,58.298,16.552,58,16,58s-1,0.298-1,0.667v0.282C9.732,58.472,5.528,54.268,5.051,49h0.283C5.702,49,6,48.553,6,48
		s-0.298-1-0.667-1H5.051c0.478-5.268,4.681-9.472,9.949-9.949v0.282C15,37.702,15.448,38,16,38s1-0.298,1-0.667v-0.282
		c5.268,0.478,9.472,4.682,9.949,9.949h-0.283C26.299,47,26,47.447,26,48s0.299,1,0.666,1h0.283
		C26.472,54.268,22.268,58.472,17,58.949z"/>
	<path fill="#6F6E6F" d="M23,47h-6v-5c0-0.553-0.448-1-1-1s-1,0.447-1,1v6c0,0.553,0.448,1,1,1c0.186,0,0.351-0.064,0.5-0.153
		C16.649,48.936,16.814,49,17,49h6c0.553,0,1-0.447,1-1S23.553,47,23,47z"/>
</g>
</svg>
